[
  { "lines": [1] },
  { "lines": [3] },
  { "range": [5, 11] },
  { "lines": [13] },
  { "range": [15, 19] },
  { "range": [21, 25] },
  { "range": [27, 31] },
  { "range": [33, 38] },
  { "range": [40, 44] },
  { "range": [46, 54] },
  { "range": [56, 60] }
]